^E:\ХЛАМ\SOME_ENGINE\GLFWOPENGL\ENGINECOREDLL\SRC\PCH.CPP
E:\Хлам\SOME_ENGINE\GLFWOPENGL\ENGINECOREDLL\X64\DEBUG\ENGINECOREDLL.PCH
E:\Хлам\SOME_ENGINE\GLFWOPENGL\ENGINECOREDLL\X64\DEBUG\VC142.PDB
E:\Хлам\SOME_ENGINE\GLFWOPENGL\ENGINECOREDLL\X64\DEBUG\VC142.IDB
E:\Хлам\SOME_ENGINE\GLFWOPENGL\ENGINECOREDLL\X64\DEBUG\PCH.OBJ
^E:\ХЛАМ\SOME_ENGINE\GLFWOPENGL\ENGINECOREDLL\SRC\MEMORY\LINEARBUFFER.CPP
E:\Хлам\SOME_ENGINE\GLFWOPENGL\ENGINECOREDLL\X64\DEBUG\VC142.PDB
E:\Хлам\SOME_ENGINE\GLFWOPENGL\ENGINECOREDLL\X64\DEBUG\VC142.IDB
E:\Хлам\SOME_ENGINE\GLFWOPENGL\ENGINECOREDLL\X64\DEBUG\LINEARBUFFER.OBJ
